{
    "spoedafspraak":"spoed afspraak", 
    "grofvuilafspraak":"grofvuil afspraak",
    "grofvuilophaal":"grofvuil ophaal",
    "stormschade":"storm schade",
    "hondenpoep":"honden poep",
    "hondpoep":"hond poep",
    "spoedpaspoort":"spoed paspoort",
    "energietegemoetkoming":"energie tegemoetkoming",
    "doodgeboren":"dood geboren",
    "spoedrijbewijs":"spoed rijbewijs",
    "parkeerbon":"parkeer bon",
    "energievergoeding":"energie vergoeding",
    "huurkosten":"huur kosten",
    "naheffingsaanslag":"naheffing aanslag",
    "naheffingsaanslagen":"naheffing aanslagen",
    "gemeenteaanslag":"gemeente aanslag",
    "gemeenteaanslagen":"gemeente aanslagen",
    "afvalscheiding":"afval scheiding",
    "afvalscheiden":"afval scheiden",
    "spoedaanvraag":"spoed aanvraag",
    "spoedaanvragen":"spoed aanvragen",
    "foutparkeren":"fout parkeren",
    "foutparkeerder":"fout parkeerder",
    "identiteits bewijs": "identiteitsbewijs",
    "naamswijziging": "naams wijziging",
    "naamswijzigen": "naams wijzigen",
    "naamwijzigen": "naam wijzigen",
    "naamswijzigingen": "naams wijzigingen",
    "afhaalbewijs": "afhaal bewijs",
    "afhaalbewijzen": "afhaal bewijzen",
    "ophaalbewijs": "ophaal bewijs",
    "ophaalbewijzen": "ophaal bewijzen",
    "uitschrijfbewijs":"uitschrijf bewijs"
}